[
  {
    "title": "student",
    "username": "sbagga",
    "password": "sha1$2bf9d61b$1$bc1154bd1f9019c25fd83781572d19ce44383f35",
    "name": "Sameer Bagga",
    "email": "sbagga@yahoo.com",
    "dateOfBirth": "1991-09-25",
    "education": "Bachelor degree",
    "state": "ON",
    "country": "CA"
  },
  {
    "title": "tutor",
    "username": "baggas",
    "password": "sha1$f6b2aa54$1$56f9660db498a56212d0fb147a3d46aba5a20583",
    "name": "Sameer Bagga",
    "email": "bagga@yahoo.com",
    "speciality": "physics",
    "education": "Bachelor degree",
    "state": "ON",
    "country": "CA"
  },
  {
    "title": "tutor",
    "username": "jbagga",
    "password": "sha1$73ac95d1$1$241bcb6ce9cea9377618c0cbfe11973c32e4ca35",
    "name": "Sameer Bagga",
    "email": "jbagga@yahoo.com",
    "speciality": "physics",
    "education": "Bachelor degree",
    "state": "ON",
    "country": "CA"
  },
  {
    "title": "tutor",
    "username": "baggatest",
    "password": "sha1$b6f26b12$1$63e165173cca6c7c882bf4c8e04df43491007c13",
    "name": "Sameer Bagga",
    "email": "sameerbagga123@yahoo.com",
    "speciality": "chemistry",
    "education": "Bachelor degree",
    "state": "ON",
    "country": "CA"
  },
  {
    "title": "student",
    "username": "sameer",
    "password": "sha1$aa4834c1$1$9c313e91d022db274a8a379a33dbc4bd560ba038",
    "name": "Sameer Bagga",
    "email": "sameerbagga@yahoo.com",
    "dateOfBirth": "1991-09-25",
    "education": "Bachelor degree",
    "state": "NU",
    "country": "CA"
  },
  {
    "title": "student",
    "username": "demouser",
    "password": "sha1$2bcc5f1f$1$0779c12f6b8385a69d2ffe9bb3f2664666583cc6",
    "name": "demouser",
    "email": "abc@abc.com",
    "dateOfBirth": "2019-11-02",
    "education": "Master degree",
    "state": "ON",
    "country": "CA"
  },
  {
    "title": "tutor",
    "username": "demouser1",
    "password": "sha1$afe14e2b$1$a4fd6a60d4e62aaa78cedc1b16a038b14dc40972",
    "name": "demo",
    "email": "xyz@zvb.com",
    "speciality": "math",
    "education": "Master degree",
    "state": "FL",
    "country": "US"
  },
  {
    "title": "student",
    "username": "demo2",
    "password": "sha1$f1502685$1$b01494efa4b8bde4ddf19b21a8e933a77edd6093",
    "name": "xyz",
    "email": "kjdsbjvi@gmail.com",
    "dateOfBirth": "2019-11-01",
    "education": "Master degree",
    "state": "QC",
    "country": "CA"
  }
]